lin/tests/waves.vcd
$date
	Mon Sep  8 16:24:02 2025
$end
$version
	Icarus Verilog
$end
$timescale
	1ps
$end
$scope module lin_top_wrapper $end
$var wire 1 ! sdo_resp $end
$var wire 1 " sdo_comm $end
$var wire 90 # response_out [89:0] $end
$var wire 1 $ resp_tx_done $end
$var wire 34 % frame_header_out [33:0] $end
$var wire 1 & comm_tx_done $end
$var reg 64 ' data [63:0] $end
$var reg 6 ( pid [5:0] $end
$var reg 1 ) rstn $end
$var reg 1 * sys_clk $end
$scope module DUT $end
$var wire 64 + data [63:0] $end
$var wire 6 , pid [5:0] $end
$var wire 1 ) rstn $end
$var wire 1 * sys_clk $end
$var wire 1 ! sdo_resp $end
$var wire 1 " sdo_comm $end
$var wire 90 - response_out [89:0] $end
$var wire 1 $ resp_tx_done $end
$var wire 1 . resp_busy $end
$var wire 1 / lin_busy $end
$var wire 124 0 frame_out [123:0] $end
$var wire 34 1 frame_header_out [33:0] $end
$var wire 1 & comm_tx_done $end
$var wire 8 2 checksum [7:0] $end
$var parameter 32 3 DELAY $end
$var parameter 32 4 IDLE $end
$var reg 5 5 delay_count [4:0] $end
$var reg 1 6 inter_tx_delay $end
$var reg 1 7 start $end
$var reg 1 8 state $end
$scope module LIN_COMM $end
$var wire 1 6 inter_tx_delay $end
$var wire 1 / lin_busy $end
$var wire 6 9 pid [5:0] $end
$var wire 1 ) rstn $end
$var wire 1 7 start $end
$var wire 1 * sys_clk $end
$var wire 1 . resp_busy $end
$var parameter 3 : IDLE $end
$var parameter 3 ; PARITY $end
$var parameter 3 < PID_STATE $end
$var parameter 3 = SYNC_BREAK $end
$var parameter 3 > SYNC_FIELD $end
$var parameter 8 ? SYNC_PATTERN $end
$var parameter 3 @ WAIT $end
$var reg 1 A append_bit $end
$var reg 4 B break_count [3:0] $end
$var reg 1 & comm_tx_done $end
$var reg 34 C frame_header [33:0] $end
$var reg 34 D frame_header_out [33:0] $end
$var reg 1 E next_sdo $end
$var reg 1 F parity0 $end
$var reg 1 G parity1 $end
$var reg 2 H parity_count [1:0] $end
$var reg 6 I pid_adrs_reg [5:0] $end
$var reg 4 J pid_count [3:0] $end
$var reg 1 " sdo_comm $end
$var reg 3 K state [2:0] $end
$var reg 4 L sync_count [3:0] $end
$upscope $end
$scope module LIN_RESP $end
$var wire 1 & comm_tx_done $end
$var wire 8 M crc_in [7:0] $end
$var wire 64 N data [63:0] $end
$var wire 34 O frame_header_out [33:0] $end
$var wire 1 / lin_busy $end
$var wire 1 ) rstn $end
$var wire 1 * sys_clk $end
$var wire 8 P sync_data [7:0] $end
$var wire 8 Q checksum [7:0] $end
$var parameter 3 R CHECKSUM $end
$var parameter 3 S CHK_START $end
$var parameter 3 T CHK_STOP $end
$var parameter 3 U DATA $end
$var parameter 3 V IDLE $end
$var parameter 3 W START $end
$var parameter 3 X STOP $end
$var reg 4 Y bit_count [3:0] $end
$var reg 4 Z byte_count [3:0] $end
$var reg 8 [ checksum_reg [7:0] $end
$var reg 64 \ data_reg [63:0] $end
$var reg 1 . resp_busy $end
$var reg 1 $ resp_tx_done $end
$var reg 90 ] response_out [89:0] $end
$var reg 1 ! sdo_resp $end
$var reg 3 ^ state [2:0] $end
$scope module CRCD64_O8 $end
$var wire 8 _ crc_in [7:0] $end
$var wire 64 ` data_in [63:0] $end
$var wire 8 a crc_out [7:0] $end
$upscope $end
$upscope $end
$upscope $end
$upscope $end
$enddefinitions $end
$comment Show the parameter values. $end
$dumpall
b11 X
b1 W
b0 V
b10 U
b110 T
b100 S
b101 R
b110 @
b1010101 ?
b10 >
b1 =
b11 <
b100 ;
b0 :
b0 4
b1 3
$end
#0
$dumpvars
bx a
bx `
b11111111 _
bx ^
bx ]
bx \
bx [
bx Z
bx Y
bx Q
bx P
bx O
bx N
b11111111 M
bx L
bx K
bx J
bx I
bx H
xG
xF
xE
bx D
bx C
bx B
xA
bx 9
x8
x7
x6
bx 5
bx 2
bx 1
bx 0
x/
x.
bx -
bx ,
bx +
0*
1)
bx (
bx '
x&
bx %
x$
bx #
x"
x!
$end
#1000
0/
b0 P
b0 %
b0 1
b0 D
b0 O
b0 0
0A
0E
b0 K
b0 C
0&
0G
0F
b0 H
b0 I
b0 J
b0 L
b0 B
0"
b0 Z
b0 Y
b0 [
b0 \
b0 ^
0$
0.
1!
b0 #
b0 -
b0 ]
07
08
b0 5
06
0)
#5000
b11100 2
b11100 Q
b11100 a
b10110110000011 '
b10110110000011 +
b10110110000011 N
b10110110000011 `
b10011 (
b10011 ,
b10011 9
1)
1*
#10000
0*
#15000
1"
b10011 I
17
1E
1*
#20000
0*
#25000
1/
b1 K
1*
#30000
0*
#35000
0"
b1 B
1A
0E
1*
#40000
0*
#45000
b10 B
1A
0E
1*
#50000
0*
#55000
b11 B
1A
0E
1*
#60000
0*
#65000
b100 B
1A
0E
1*
#70000
0*
#75000
b101 B
1A
0E
1*
#80000
0*
#85000
b110 B
1A
0E
1*
#90000
0*
#95000
b111 B
1A
0E
1*
#100000
0*
#105000
b1000 B
1A
0E
1*
#110000
0*
#115000
b1001 B
1A
0E
1*
#120000
0*
#125000
b1010 B
1A
0E
1*
#130000
0*
#135000
b1011 B
1A
0E
1*
#140000
0*
#145000
b1100 B
1A
0E
1*
#150000
0*
#155000
b1101 B
1A
0E
1*
#160000
0*
#165000
b1 C
1"
b10 K
b0 B
1A
1E
1*
#170000
0*
#175000
b10 C
0"
b1 L
0E
1A
1*
#180000
0*
#185000
b101 C
1"
b10 L
1A
1E
1*
#190000
0*
#195000
b1010 C
0"
b11 L
0E
1A
1*
#200000
0*
#205000
b10101 C
1"
b100 L
1A
1E
1*
#210000
0*
#215000
b101010 C
0"
b101 L
0E
1A
1*
#220000
0*
#225000
b1010101 C
1"
b110 L
1A
1E
1*
#230000
0*
#235000
b10101010 C
0"
b111 L
0E
1A
1*
#240000
0*
#245000
b101010101 C
1"
b1000 L
1A
1E
1*
#250000
0*
#255000
b1010101010 C
0"
b1001 L
0E
1A
1*
#260000
0*
#265000
b10101010101 C
1"
b11 K
b0 L
1A
1E
1*
#270000
0*
#275000
b101010101010 C
0"
b1 J
0E
1A
1*
#280000
0*
#285000
b1010101010101 C
1"
b10 J
b1001 I
1A
1E
1*
#290000
0*
#295000
b10101010101011 C
b11 J
b100 I
1A
1*
#300000
0*
#305000
b101010101010110 C
0"
b100 J
b10 I
0E
1A
1*
#310000
0*
#315000
b1010101010101100 C
b101 J
b1 I
1A
0E
1*
#320000
0*
#325000
b10101010101011001 C
1"
b110 J
b0 I
1A
1E
1*
#330000
0*
#335000
b101010101010110010 C
0"
b111 J
0E
1A
1*
#340000
0*
#345000
1"
b100 K
b0 J
1G
1F
0A
1E
1*
#350000
0*
#355000
b1010101010101100101 C
b1 H
1A
1*
#360000
0*
#365000
b10101010101011001011 C
b10 H
1A
1*
#370000
0*
#375000
b1010101 P
0/
b101010101010110010111 %
b101010101010110010111 1
b101010101010110010111 D
b101010101010110010111 O
b101010101010110010111 C
b110 K
1&
b0 H
1A
1*
#380000
0*
#385000
b1 ^
0!
1.
b11100 [
b10110110000011 \
b0 K
0A
1*
#390000
0*
#395000
b0 P
b0 %
b0 1
b0 D
b0 O
b10011 I
0&
b10 ^
b1 Y
b1011011000001 \
1!
07
1*
#400000
0*
#405000
b10 Y
b101101100000 \
b1 #
b1 -
b1 ]
1*
#410000
0*
#415000
b11 Y
b10110110000 \
0!
b11 #
b11 -
b11 ]
1*
#420000
0*
#425000
b100 Y
b1011011000 \
b110 #
b110 -
b110 ]
1*
#430000
0*
#435000
b101 Y
b101101100 \
b1100 #
b1100 -
b1100 ]
1*
#440000
0*
#445000
b110 Y
b10110110 \
b11000 #
b11000 -
b11000 ]
1*
#450000
0*
#455000
b111 Y
b1011011 \
b110000 #
b110000 -
b110000 ]
1*
#460000
0*
#465000
b1000 Y
b101101 \
1!
b1100000 #
b1100000 -
b1100000 ]
1*
#470000
0*
#475000
b11 ^
b0 Y
b11000001 #
b11000001 -
b11000001 ]
1*
#480000
0*
#485000
b1 ^
0!
b1 Z
b110000011 #
b110000011 -
b110000011 ]
1*
#490000
0*
#495000
b10 ^
b1 Y
b10110 \
1!
b1100000110 #
b1100000110 -
b1100000110 ]
1*
#500000
0*
#505000
b10 Y
b1011 \
0!
b11000001101 #
b11000001101 -
b11000001101 ]
1*
#510000
0*
#515000
b11 Y
b101 \
1!
b110000011010 #
b110000011010 -
b110000011010 ]
1*
#520000
0*
#525000
b100 Y
b10 \
b1100000110101 #
b1100000110101 -
b1100000110101 ]
1*
#530000
0*
#535000
b101 Y
b1 \
0!
b11000001101011 #
b11000001101011 -
b11000001101011 ]
1*
#540000
0*
#545000
b110 Y
b0 \
1!
b110000011010110 #
b110000011010110 -
b110000011010110 ]
1*
#550000
0*
#555000
b111 Y
0!
b1100000110101101 #
b1100000110101101 -
b1100000110101101 ]
1*
#560000
0*
#565000
b1000 Y
b11000001101011010 #
b11000001101011010 -
b11000001101011010 ]
1*
#570000
0*
#575000
b11 ^
b0 Y
1!
b110000011010110100 #
b110000011010110100 -
b110000011010110100 ]
1*
#580000
0*
#585000
b1 ^
0!
b10 Z
b1100000110101101001 #
b1100000110101101001 -
b1100000110101101001 ]
1*
#590000
0*
#595000
b10 ^
b1 Y
b11000001101011010010 #
b11000001101011010010 -
b11000001101011010010 ]
1*
#600000
0*
#605000
b10 Y
b110000011010110100100 #
b110000011010110100100 -
b110000011010110100100 ]
1*
#610000
0*
#615000
b11 Y
b1100000110101101001000 #
b1100000110101101001000 -
b1100000110101101001000 ]
1*
#620000
0*
#625000
b100 Y
b11000001101011010010000 #
b11000001101011010010000 -
b11000001101011010010000 ]
1*
#630000
0*
#635000
b101 Y
b110000011010110100100000 #
b110000011010110100100000 -
b110000011010110100100000 ]
1*
#640000
0*
#645000
b110 Y
b1100000110101101001000000 #
b1100000110101101001000000 -
b1100000110101101001000000 ]
1*
#650000
0*
#655000
b111 Y
b11000001101011010010000000 #
b11000001101011010010000000 -
b11000001101011010010000000 ]
1*
#660000
0*
#665000
b1000 Y
b110000011010110100100000000 #
b110000011010110100100000000 -
b110000011010110100100000000 ]
1*
#670000
0*
#675000
b11 ^
b0 Y
1!
b1100000110101101001000000000 #
b1100000110101101001000000000 -
b1100000110101101001000000000 ]
1*
#680000
0*
#685000
b1 ^
0!
b11 Z
b11000001101011010010000000001 #
b11000001101011010010000000001 -
b11000001101011010010000000001 ]
1*
#690000
0*
#695000
b10 ^
b1 Y
b110000011010110100100000000010 #
b110000011010110100100000000010 -
b110000011010110100100000000010 ]
1*
#700000
0*
#705000
b10 Y
b1100000110101101001000000000100 #
b1100000110101101001000000000100 -
b1100000110101101001000000000100 ]
1*
#710000
0*
#715000
b11 Y
b11000001101011010010000000001000 #
b11000001101011010010000000001000 -
b11000001101011010010000000001000 ]
1*
#720000
0*
#725000
b100 Y
b110000011010110100100000000010000 #
b110000011010110100100000000010000 -
b110000011010110100100000000010000 ]
1*
#730000
0*
#735000
b101 Y
b1100000110101101001000000000100000 #
b1100000110101101001000000000100000 -
b1100000110101101001000000000100000 ]
1*
#740000
0*
#745000
b110 Y
b11000001101011010010000000001000000 #
b11000001101011010010000000001000000 -
b11000001101011010010000000001000000 ]
1*
#750000
0*
#755000
b111 Y
b110000011010110100100000000010000000 #
b110000011010110100100000000010000000 -
b110000011010110100100000000010000000 ]
1*
#760000
0*
#765000
b1000 Y
b1100000110101101001000000000100000000 #
b1100000110101101001000000000100000000 -
b1100000110101101001000000000100000000 ]
1*
#770000
0*
#775000
b11 ^
b0 Y
1!
b11000001101011010010000000001000000000 #
b11000001101011010010000000001000000000 -
b11000001101011010010000000001000000000 ]
1*
#780000
0*
#785000
b1 ^
0!
b100 Z
b110000011010110100100000000010000000001 #
b110000011010110100100000000010000000001 -
b110000011010110100100000000010000000001 ]
1*
#790000
0*
#795000
b10 ^
b1 Y
b1100000110101101001000000000100000000010 #
b1100000110101101001000000000100000000010 -
b1100000110101101001000000000100000000010 ]
1*
#800000
0*
#805000
b10 Y
b11000001101011010010000000001000000000100 #
b11000001101011010010000000001000000000100 -
b11000001101011010010000000001000000000100 ]
1*
#810000
0*
#815000
b11 Y
b110000011010110100100000000010000000001000 #
b110000011010110100100000000010000000001000 -
b110000011010110100100000000010000000001000 ]
1*
#820000
0*
#825000
b100 Y
b1100000110101101001000000000100000000010000 #
b1100000110101101001000000000100000000010000 -
b1100000110101101001000000000100000000010000 ]
1*
#830000
0*
#835000
b101 Y
b11000001101011010010000000001000000000100000 #
b11000001101011010010000000001000000000100000 -
b11000001101011010010000000001000000000100000 ]
1*
#840000
0*
#845000
b110 Y
b110000011010110100100000000010000000001000000 #
b110000011010110100100000000010000000001000000 -
b110000011010110100100000000010000000001000000 ]
1*
#850000
0*
#855000
b111 Y
b1100000110101101001000000000100000000010000000 #
b1100000110101101001000000000100000000010000000 -
b1100000110101101001000000000100000000010000000 ]
1*
#860000
0*
#865000
b1000 Y
b11000001101011010010000000001000000000100000000 #
b11000001101011010010000000001000000000100000000 -
b11000001101011010010000000001000000000100000000 ]
1*
#870000
0*
#875000
b11 ^
b0 Y
1!
b110000011010110100100000000010000000001000000000 #
b110000011010110100100000000010000000001000000000 -
b110000011010110100100000000010000000001000000000 ]
1*
#880000
0*
#885000
b1 ^
0!
b101 Z
b1100000110101101001000000000100000000010000000001 #
b1100000110101101001000000000100000000010000000001 -
b1100000110101101001000000000100000000010000000001 ]
1*
#890000
0*
#895000
b10 ^
b1 Y
b11000001101011010010000000001000000000100000000010 #
b11000001101011010010000000001000000000100000000010 -
b11000001101011010010000000001000000000100000000010 ]
1*
#900000
0*
#905000
b10 Y
b110000011010110100100000000010000000001000000000100 #
b110000011010110100100000000010000000001000000000100 -
b110000011010110100100000000010000000001000000000100 ]
1*
#910000
0*
#915000
b11 Y
b1100000110101101001000000000100000000010000000001000 #
b1100000110101101001000000000100000000010000000001000 -
b1100000110101101001000000000100000000010000000001000 ]
1*
#920000
0*
#925000
b100 Y
b11000001101011010010000000001000000000100000000010000 #
b11000001101011010010000000001000000000100000000010000 -
b11000001101011010010000000001000000000100000000010000 ]
1*
#930000
0*
#935000
b101 Y
b110000011010110100100000000010000000001000000000100000 #
b110000011010110100100000000010000000001000000000100000 -
b110000011010110100100000000010000000001000000000100000 ]
1*
#940000
0*
#945000
b110 Y
b1100000110101101001000000000100000000010000000001000000 #
b1100000110101101001000000000100000000010000000001000000 -
b1100000110101101001000000000100000000010000000001000000 ]
1*
#950000
0*
#955000
b111 Y
b11000001101011010010000000001000000000100000000010000000 #
b11000001101011010010000000001000000000100000000010000000 -
b11000001101011010010000000001000000000100000000010000000 ]
1*
#960000
0*
#965000
b1000 Y
b110000011010110100100000000010000000001000000000100000000 #
b110000011010110100100000000010000000001000000000100000000 -
b110000011010110100100000000010000000001000000000100000000 ]
1*
#970000
0*
#975000
b11 ^
b0 Y
1!
b1100000110101101001000000000100000000010000000001000000000 #
b1100000110101101001000000000100000000010000000001000000000 -
b1100000110101101001000000000100000000010000000001000000000 ]
1*
#980000
0*
#985000
b1 ^
0!
b110 Z
b11000001101011010010000000001000000000100000000010000000001 #
b11000001101011010010000000001000000000100000000010000000001 -
b11000001101011010010000000001000000000100000000010000000001 ]
1*
#990000
0*
#995000
b10 ^
b1 Y
b110000011010110100100000000010000000001000000000100000000010 #
b110000011010110100100000000010000000001000000000100000000010 -
b110000011010110100100000000010000000001000000000100000000010 ]
1*
#1000000
0*
#1005000
b10 Y
b1100000110101101001000000000100000000010000000001000000000100 #
b1100000110101101001000000000100000000010000000001000000000100 -
b1100000110101101001000000000100000000010000000001000000000100 ]
1*
#1010000
0*
#1015000
b11 Y
b11000001101011010010000000001000000000100000000010000000001000 #
b11000001101011010010000000001000000000100000000010000000001000 -
b11000001101011010010000000001000000000100000000010000000001000 ]
1*
#1020000
0*
#1025000
b100 Y
b110000011010110100100000000010000000001000000000100000000010000 #
b110000011010110100100000000010000000001000000000100000000010000 -
b110000011010110100100000000010000000001000000000100000000010000 ]
1*
#1030000
0*
#1035000
b101 Y
b1100000110101101001000000000100000000010000000001000000000100000 #
b1100000110101101001000000000100000000010000000001000000000100000 -
b1100000110101101001000000000100000000010000000001000000000100000 ]
1*
#1040000
0*
#1045000
b110 Y
b11000001101011010010000000001000000000100000000010000000001000000 #
b11000001101011010010000000001000000000100000000010000000001000000 -
b11000001101011010010000000001000000000100000000010000000001000000 ]
1*
#1050000
0*
#1055000
b111 Y
b110000011010110100100000000010000000001000000000100000000010000000 #
b110000011010110100100000000010000000001000000000100000000010000000 -
b110000011010110100100000000010000000001000000000100000000010000000 ]
1*
#1060000
0*
#1065000
b1000 Y
b1100000110101101001000000000100000000010000000001000000000100000000 #
b1100000110101101001000000000100000000010000000001000000000100000000 -
b1100000110101101001000000000100000000010000000001000000000100000000 ]
1*
#1070000
0*
#1075000
b11 ^
b0 Y
1!
b11000001101011010010000000001000000000100000000010000000001000000000 #
b11000001101011010010000000001000000000100000000010000000001000000000 -
b11000001101011010010000000001000000000100000000010000000001000000000 ]
1*
#1080000
0*
#1085000
b1 ^
0!
b111 Z
b110000011010110100100000000010000000001000000000100000000010000000001 #
b110000011010110100100000000010000000001000000000100000000010000000001 -
b110000011010110100100000000010000000001000000000100000000010000000001 ]
1*
#1090000
0*
#1095000
b10 ^
b1 Y
b1100000110101101001000000000100000000010000000001000000000100000000010 #
b1100000110101101001000000000100000000010000000001000000000100000000010 -
b1100000110101101001000000000100000000010000000001000000000100000000010 ]
1*
#1100000
0*
#1105000
b10 Y
b11000001101011010010000000001000000000100000000010000000001000000000100 #
b11000001101011010010000000001000000000100000000010000000001000000000100 -
b11000001101011010010000000001000000000100000000010000000001000000000100 ]
1*
#1110000
0*
#1115000
b11 Y
b110000011010110100100000000010000000001000000000100000000010000000001000 #
b110000011010110100100000000010000000001000000000100000000010000000001000 -
b110000011010110100100000000010000000001000000000100000000010000000001000 ]
1*
#1120000
0*
#1125000
b100 Y
b1100000110101101001000000000100000000010000000001000000000100000000010000 #
b1100000110101101001000000000100000000010000000001000000000100000000010000 -
b1100000110101101001000000000100000000010000000001000000000100000000010000 ]
1*
#1130000
0*
#1135000
b101 Y
b11000001101011010010000000001000000000100000000010000000001000000000100000 #
b11000001101011010010000000001000000000100000000010000000001000000000100000 -
b11000001101011010010000000001000000000100000000010000000001000000000100000 ]
1*
#1140000
0*
#1145000
b110 Y
b110000011010110100100000000010000000001000000000100000000010000000001000000 #
b110000011010110100100000000010000000001000000000100000000010000000001000000 -
b110000011010110100100000000010000000001000000000100000000010000000001000000 ]
1*
#1150000
0*
#1155000
b111 Y
b1100000110101101001000000000100000000010000000001000000000100000000010000000 #
b1100000110101101001000000000100000000010000000001000000000100000000010000000 -
b1100000110101101001000000000100000000010000000001000000000100000000010000000 ]
1*
#1160000
0*
#1165000
b1000 Y
b11000001101011010010000000001000000000100000000010000000001000000000100000000 #
b11000001101011010010000000001000000000100000000010000000001000000000100000000 -
b11000001101011010010000000001000000000100000000010000000001000000000100000000 ]
1*
#1170000
0*
#1175000
b11 ^
b0 Y
1!
b110000011010110100100000000010000000001000000000100000000010000000001000000000 #
b110000011010110100100000000010000000001000000000100000000010000000001000000000 -
b110000011010110100100000000010000000001000000000100000000010000000001000000000 ]
1*
#1180000
0*
#1185000
b100 ^
0!
b1100000110101101001000000000100000000010000000001000000000100000000010000000001 #
b1100000110101101001000000000100000000010000000001000000000100000000010000000001 -
b1100000110101101001000000000100000000010000000001000000000100000000010000000001 ]
1*
#1190000
0*
#1195000
b101 ^
b1 Y
b1110 [
b11000001101011010010000000001000000000100000000010000000001000000000100000000010 #
b11000001101011010010000000001000000000100000000010000000001000000000100000000010 -
b11000001101011010010000000001000000000100000000010000000001000000000100000000010 ]
1*
#1200000
0*
#1205000
b10 Y
b111 [
b110000011010110100100000000010000000001000000000100000000010000000001000000000100 #
b110000011010110100100000000010000000001000000000100000000010000000001000000000100 -
b110000011010110100100000000010000000001000000000100000000010000000001000000000100 ]
1*
#1210000
0*
#1215000
b11 Y
b11 [
1!
b1100000110101101001000000000100000000010000000001000000000100000000010000000001000 #
b1100000110101101001000000000100000000010000000001000000000100000000010000000001000 -
b1100000110101101001000000000100000000010000000001000000000100000000010000000001000 ]
1*
#1220000
0*
#1225000
b100 Y
b1 [
b11000001101011010010000000001000000000100000000010000000001000000000100000000010001 #
b11000001101011010010000000001000000000100000000010000000001000000000100000000010001 -
b11000001101011010010000000001000000000100000000010000000001000000000100000000010001 ]
1*
#1230000
0*
#1235000
b101 Y
b0 [
b110000011010110100100000000010000000001000000000100000000010000000001000000000100011 #
b110000011010110100100000000010000000001000000000100000000010000000001000000000100011 -
b110000011010110100100000000010000000001000000000100000000010000000001000000000100011 ]
1*
#1240000
0*
#1245000
b110 Y
0!
b1100000110101101001000000000100000000010000000001000000000100000000010000000001000111 #
b1100000110101101001000000000100000000010000000001000000000100000000010000000001000111 -
b1100000110101101001000000000100000000010000000001000000000100000000010000000001000111 ]
1*
#1250000
0*
#1255000
b111 Y
b11000001101011010010000000001000000000100000000010000000001000000000100000000010001110 #
b11000001101011010010000000001000000000100000000010000000001000000000100000000010001110 -
b11000001101011010010000000001000000000100000000010000000001000000000100000000010001110 ]
1*
#1260000
0*
#1265000
b1000 Y
b110000011010110100100000000010000000001000000000100000000010000000001000000000100011100 #
b110000011010110100100000000010000000001000000000100000000010000000001000000000100011100 -
b110000011010110100100000000010000000001000000000100000000010000000001000000000100011100 ]
1*
#1270000
0*
#1275000
b110 ^
1!
b1100000110101101001000000000100000000010000000001000000000100000000010000000001000111000 #
b1100000110101101001000000000100000000010000000001000000000100000000010000000001000111000 -
b1100000110101101001000000000100000000010000000001000000000100000000010000000001000111000 ]
1*
#1280000
0*
#1285000
b11000001101011010010000000001000000000100000000010000000001000000000100000000010001110001 0
b0 ^
0.
1$
b11000001101011010010000000001000000000100000000010000000001000000000100000000010001110001 #
b11000001101011010010000000001000000000100000000010000000001000000000100000000010001110001 -
b11000001101011010010000000001000000000100000000010000000001000000000100000000010001110001 ]
1*
#1290000
0*
#1295000
b0 0
b0 Z
b0 Y
0$
b0 #
b0 -
b0 ]
18
1*
#1300000
0*
#1305000
16
b1 5
17
1*
#1310000
0*
#1315000
b10 5
1*
#1320000
0*
#1325000
b11 5
1*
#1330000
0*
#1335000
b101111 2
b101111 Q
b101111 a
b10110100111101 '
b10110100111101 +
b10110100111101 N
b10110100111101 `
b100 (
b100 ,
b100 9
b100 5
1*
#1340000
0*
#1345000
b101 5
b100 I
1*
#1350000
0*
#1355000
b110 5
1*
#1360000
0*
#1365000
b111 5
1*
#1370000
0*
#1375000
b1000 5
1*
#1380000
0*
#1385000
b1001 5
1*
#1390000
0*
#1395000
b1010 5
1*
#1400000
0*
#1405000
b1011 5
1*
#1410000
0*
#1415000
b1100 5
1*
#1420000
0*
#1425000
b1101 5
1*
#1430000
0*
#1435000
b1110 5
1*
#1440000
0*
#1445000
b1111 5
1*
#1450000
0*
#1455000
b10000 5
1*
#1460000
0*
#1465000
b10001 5
1*
#1470000
0*
#1475000
b10010 5
1*
#1480000
0*
#1485000
b10011 5
1*
#1490000
0*
#1495000
b10100 5
1*
#1500000
0*
#1505000
08
06
b0 5
1*
#1510000
0*
#1515000
1/
b1 K
1*
#1520000
0*
#1525000
b1010101010101100101110 C
0"
b1 B
1A
0E
1*
#1530000
0*
#1535000
b10101010101011001011100 C
b10 B
1A
0E
1*
#1540000
0*
#1545000
b101010101010110010111000 C
b11 B
1A
0E
1*
#1550000
0*
#1555000
b1010101010101100101110000 C
b100 B
1A
0E
1*
#1560000
0*
#1565000
b10101010101011001011100000 C
b101 B
1A
0E
1*
#1570000
0*
#1575000
b101010101010110010111000000 C
b110 B
1A
0E
1*
#1580000
0*
#1585000
b1010101010101100101110000000 C
b111 B
1A
0E
1*
#1590000
0*
#1595000
b10101010101011001011100000000 C
b1000 B
1A
0E
1*
#1600000
0*
#1605000
b101010101010110010111000000000 C
b1001 B
1A
0E
1*
#1610000
0*
#1615000
b1010101010101100101110000000000 C
b1010 B
1A
0E
1*
#1620000
0*
#1625000
b10101010101011001011100000000000 C
b1011 B
1A
0E
1*
#1630000
0*
#1635000
b101010101010110010111000000000000 C
b1100 B
1A
0E
1*
#1640000
0*
#1645000
b1010101010101100101110000000000000 C
b1101 B
1A
0E
1*
#1650000
0*
#1655000
b101010101011001011100000000000001 C
1"
b10 K
b0 B
1A
1E
1*
#1660000
0*
#1665000
b1010101010110010111000000000000010 C
0"
b1 L
0E
1A
1*
#1670000
0*
#1675000
b101010101100101110000000000000101 C
1"
b10 L
1A
1E
1*
#1680000
0*
#1685000
b1010101011001011100000000000001010 C
0"
b11 L
0E
1A
1*
#1690000
0*
#1695000
b101010110010111000000000000010101 C
1"
b100 L
1A
1E
1*
#1700000
0*
#1705000
b1010101100101110000000000000101010 C
0"
b101 L
0E
1A
1*
#1710000
0*
#1715000
b101011001011100000000000001010101 C
1"
b110 L
1A
1E
1*
#1720000
0*
#1725000
b1010110010111000000000000010101010 C
0"
b111 L
0E
1A
1*
#1730000
0*
#1735000
b101100101110000000000000101010101 C
1"
b1000 L
1A
1E
1*
#1740000
0*
#1745000
b1011001011100000000000001010101010 C
0"
b1001 L
0E
1A
1*
#1750000
0*
#1755000
b110010111000000000000010101010101 C
1"
b11 K
b0 L
1A
1E
1*
#1760000
0*
#1765000
b1100101110000000000000101010101010 C
0"
b1 J
0E
1A
1*
#1770000
0*
#1775000
b1001011100000000000001010101010100 C
b10 J
b10 I
1A
0E
1*
#1780000
0*
#1785000
b10111000000000000010101010101000 C
b11 J
b1 I
1A
0E
1*
#1790000
0*
#1795000
b101110000000000000101010101010001 C
1"
b100 J
b0 I
1A
1E
1*
#1800000
0*
#1805000
b1011100000000000001010101010100010 C
0"
b101 J
0E
1A
1*
#1810000
0*
#1815000
b111000000000000010101010101000100 C
b110 J
1A
0E
1*
#1820000
0*
#1825000
b1110000000000000101010101010001000 C
b111 J
1A
0E
1*
#1830000
0*
#1835000
1"
b100 K
b0 J
0A
1E
1*
#1840000
0*
#1845000
b1100000000000001010101010100010001 C
b1 H
1A
1*
#1850000
0*
#1855000
b1000000000000010101010101000100011 C
b10 H
1A
1*
#1860000
0*
#1865000
b1010101 P
0/
b101010101010001000111 %
b101010101010001000111 1
b101010101010001000111 D
b101010101010001000111 O
b101010101010001000111 C
b110 K
1&
b0 H
1A
1*
#1870000
0*
#1875000
b0 K
b1 ^
0!
1.
b101111 [
b10110100111101 \
0A
1*
#1880000
0*
#1885000
b0 P
b0 %
b0 1
b0 D
b0 O
07
b10 ^
b1 Y
b1011010011110 \
1!
b100 I
0&
1*
#1890000
0*
#1895000
b10 Y
b101101001111 \
0!
b1 #
b1 -
b1 ]
1*
#1900000
0*
#1905000
b11 Y
b10110100111 \
1!
b10 #
b10 -
b10 ]
1*
#1910000
0*
#1915000
b100 Y
b1011010011 \
b101 #
b101 -
b101 ]
1*
#1920000
0*
#1925000
b101 Y
b101101001 \
b1011 #
b1011 -
b1011 ]
1*
#1930000
0*
#1935000
b110 Y
b10110100 \
b10111 #
b10111 -
b10111 ]
1*
#1940000
0*
#1945000
b111 Y
b1011010 \
0!
b101111 #
b101111 -
b101111 ]
1*
#1950000
0*
#1955000
b1000 Y
b101101 \
b1011110 #
b1011110 -
b1011110 ]
1*
#1960000
0*
#1965000
b11 ^
b0 Y
1!
b10111100 #
b10111100 -
b10111100 ]
1*
#1970000
0*
#1975000
b1 ^
0!
b1 Z
b101111001 #
b101111001 -
b101111001 ]
1*
#1980000
0*
#1985000
b10 ^
b1 Y
b10110 \
1!
b1011110010 #
b1011110010 -
b1011110010 ]
1*
#1990000
0*
#1995000
b10 Y
b1011 \
0!
b10111100101 #
b10111100101 -
b10111100101 ]
1*
#2000000
0*
#2005000
b11 Y
b101 \
1!
b101111001010 #
b101111001010 -
b101111001010 ]
1*
#2010000
0*
#2015000
b100 Y
b10 \
b1011110010101 #
b1011110010101 -
b1011110010101 ]
1*
#2020000
0*
#2025000
b101 Y
b1 \
0!
b10111100101011 #
b10111100101011 -
b10111100101011 ]
1*
#2030000
0*
#2035000
b110 Y
b0 \
1!
b101111001010110 #
b101111001010110 -
b101111001010110 ]
1*
#2040000
0*
#2045000
b111 Y
0!
b1011110010101101 #
b1011110010101101 -
b1011110010101101 ]
1*
#2050000
0*
#2055000
b1000 Y
b10111100101011010 #
b10111100101011010 -
b10111100101011010 ]
1*
#2060000
0*
#2065000
b11 ^
b0 Y
1!
b101111001010110100 #
b101111001010110100 -
b101111001010110100 ]
1*
#2070000
0*
#2075000
b1 ^
0!
b10 Z
b1011110010101101001 #
b1011110010101101001 -
b1011110010101101001 ]
1*
#2080000
0*
#2085000
b10 ^
b1 Y
b10111100101011010010 #
b10111100101011010010 -
b10111100101011010010 ]
1*
#2090000
0*
#2095000
b10 Y
b101111001010110100100 #
b101111001010110100100 -
b101111001010110100100 ]
1*
#2100000
0*
#2105000
b11 Y
b1011110010101101001000 #
b1011110010101101001000 -
b1011110010101101001000 ]
1*
#2110000
0*
#2115000
b100 Y
b10111100101011010010000 #
b10111100101011010010000 -
b10111100101011010010000 ]
1*
#2120000
0*
#2125000
b101 Y
b101111001010110100100000 #
b101111001010110100100000 -
b101111001010110100100000 ]
1*
#2130000
0*
#2135000
b110 Y
b1011110010101101001000000 #
b1011110010101101001000000 -
b1011110010101101001000000 ]
1*
#2140000
0*
#2145000
b111 Y
b10111100101011010010000000 #
b10111100101011010010000000 -
b10111100101011010010000000 ]
1*
#2150000
0*
#2155000
b1000 Y
b101111001010110100100000000 #
b101111001010110100100000000 -
b101111001010110100100000000 ]
1*
#2160000
0*
